UART_RX_TEST/simulation/qsim/UART_RX_TEST.msim.vcd
$comment
	File created using the following command:
		vcd file UART_RX_TEST.msim.vcd -direction
$end
$date
	Wed Apr 20 00:56:19 2016
$end
$version
	ModelSim Version 10.4b
$end
$timescale
	1ps
$end

$scope module UART_RX_TEST_vlg_vec_tst $end
$var reg 1 ! Bit_Par $end
$var reg 1 " clk $end
$var reg 1 # reset $end
$var reg 1 $ RX $end
$var wire 1 % Blad_Par $end
$var wire 1 & Dane_Wyj [7] $end
$var wire 1 ' Dane_Wyj [6] $end
$var wire 1 ( Dane_Wyj [5] $end
$var wire 1 ) Dane_Wyj [4] $end
$var wire 1 * Dane_Wyj [3] $end
$var wire 1 + Dane_Wyj [2] $end
$var wire 1 , Dane_Wyj [1] $end
$var wire 1 - Dane_Wyj [0] $end
$var wire 1 . RX_Dane_Gotowe $end

$scope module i1 $end
$var wire 1 / gnd $end
$var wire 1 0 vcc $end
$var wire 1 1 unknown $end
$var tri1 1 2 devclrn $end
$var tri1 1 3 devpor $end
$var tri1 1 4 devoe $end
$var wire 1 5 ~QUARTUS_CREATED_GND~I_combout $end
$var wire 1 6 ~QUARTUS_CREATED_UNVM~~busy $end
$var wire 1 7 ~QUARTUS_CREATED_ADC1~~eoc $end
$var wire 1 8 Dane_Wyj[0]~output_o $end
$var wire 1 9 Dane_Wyj[1]~output_o $end
$var wire 1 : Dane_Wyj[2]~output_o $end
$var wire 1 ; Dane_Wyj[3]~output_o $end
$var wire 1 < Dane_Wyj[4]~output_o $end
$var wire 1 = Dane_Wyj[5]~output_o $end
$var wire 1 > Dane_Wyj[6]~output_o $end
$var wire 1 ? Dane_Wyj[7]~output_o $end
$var wire 1 @ Blad_Par~output_o $end
$var wire 1 A RX_Dane_Gotowe~output_o $end
$var wire 1 B clk~input_o $end
$var wire 1 C clk~inputclkctrl_outclk $end
$var wire 1 D RX~input_o $end
$var wire 1 E reset~input_o $end
$var wire 1 F Bit_Par~input_o $end
$var wire 1 G baud_gen_unit|Add0~0_combout $end
$var wire 1 H baud_gen_unit|Add0~1 $end
$var wire 1 I baud_gen_unit|Add0~2_combout $end
$var wire 1 J baud_gen_unit|Add0~3 $end
$var wire 1 K baud_gen_unit|Add0~5 $end
$var wire 1 L baud_gen_unit|Add0~6_combout $end
$var wire 1 M baud_gen_unit|Add0~7 $end
$var wire 1 N baud_gen_unit|Add0~8_combout $end
$var wire 1 O baud_gen_unit|Add0~9 $end
$var wire 1 P baud_gen_unit|Add0~10_combout $end
$var wire 1 Q baud_gen_unit|Add0~11 $end
$var wire 1 R baud_gen_unit|Add0~12_combout $end
$var wire 1 S baud_gen_unit|Add0~13 $end
$var wire 1 T baud_gen_unit|Add0~14_combout $end
$var wire 1 U baud_gen_unit|Equal0~0_combout $end
$var wire 1 V baud_gen_unit|Add0~4_combout $end
$var wire 1 W baud_gen_unit|r_next[2]~0_combout $end
$var wire 1 X baud_gen_unit|Equal0~1_combout $end
$var wire 1 Y uart_rx_unit|Baud_Ctr[0]~8_combout $end
$var wire 1 Z uart_rx_unit|Equal1~0_combout $end
$var wire 1 [ uart_rx_unit|Equal1~2_combout $end
$var wire 1 \ uart_rx_unit|Baud_Ctr[7]~10_combout $end
$var wire 1 ] uart_rx_unit|Baud_Ctr[7]~12_combout $end
$var wire 1 ^ uart_rx_unit|Baud_Ctr[7]~11_combout $end
$var wire 1 _ uart_rx_unit|Baud_Ctr[7]~13_combout $end
$var wire 1 ` uart_rx_unit|Baud_Ctr[7]~14_combout $end
$var wire 1 a uart_rx_unit|Baud_Ctr[0]~9 $end
$var wire 1 b uart_rx_unit|Baud_Ctr[1]~15_combout $end
$var wire 1 c uart_rx_unit|Baud_Ctr[1]~16 $end
$var wire 1 d uart_rx_unit|Baud_Ctr[2]~17_combout $end
$var wire 1 e uart_rx_unit|Baud_Ctr[2]~18 $end
$var wire 1 f uart_rx_unit|Baud_Ctr[3]~19_combout $end
$var wire 1 g uart_rx_unit|Baud_Ctr[3]~20 $end
$var wire 1 h uart_rx_unit|Baud_Ctr[4]~21_combout $end
$var wire 1 i uart_rx_unit|Baud_Ctr[4]~22 $end
$var wire 1 j uart_rx_unit|Baud_Ctr[5]~23_combout $end
$var wire 1 k uart_rx_unit|Baud_Ctr[5]~24 $end
$var wire 1 l uart_rx_unit|Baud_Ctr[6]~25_combout $end
$var wire 1 m uart_rx_unit|Baud_Ctr[6]~26 $end
$var wire 1 n uart_rx_unit|Baud_Ctr[7]~27_combout $end
$var wire 1 o uart_rx_unit|Equal1~1_combout $end
$var wire 1 p uart_rx_unit|Dane_Reg[0]~0_combout $end
$var wire 1 q uart_rx_unit|Selector4~0_combout $end
$var wire 1 r uart_rx_unit|Stan.stop~q $end
$var wire 1 s uart_rx_unit|Selector0~0_combout $end
$var wire 1 t uart_rx_unit|Stan.czekaj~q $end
$var wire 1 u uart_rx_unit|Selector1~0_combout $end
$var wire 1 v uart_rx_unit|Blad_Par~1_combout $end
$var wire 1 w uart_rx_unit|Selector3~0_combout $end
$var wire 1 x uart_rx_unit|Selector1~1_combout $end
$var wire 1 y uart_rx_unit|Selector1~2_combout $end
$var wire 1 z uart_rx_unit|Selector3~1_combout $end
$var wire 1 { uart_rx_unit|Stan.bit_parzystosci~q $end
$var wire 1 | uart_rx_unit|Baud_Ctr[7]~29_combout $end
$var wire 1 } uart_rx_unit|Selector1~3_combout $end
$var wire 1 ~ uart_rx_unit|Stan.start~q $end
$var wire 1 !! uart_rx_unit|Dane_Ctr[3]~0_combout $end
$var wire 1 "! uart_rx_unit|Dane_Ctr[0]~3_combout $end
$var wire 1 #! uart_rx_unit|Dane_Ctr[1]~2_combout $end
$var wire 1 $! uart_rx_unit|Add1~0_combout $end
$var wire 1 %! uart_rx_unit|Dane_Ctr[2]~1_combout $end
$var wire 1 &! uart_rx_unit|Add1~1_combout $end
$var wire 1 '! uart_rx_unit|Dane_Ctr[3]~4_combout $end
$var wire 1 (! uart_rx_unit|Nast_Stan~5_combout $end
$var wire 1 )! uart_rx_unit|Selector2~0_combout $end
$var wire 1 *! uart_rx_unit|Stan.dane~q $end
$var wire 1 +! uart_rx_unit|Dane_Reg[0]~1_combout $end
$var wire 1 ,! uart_rx_unit|Dane_Reg[6]~feeder_combout $end
$var wire 1 -! uart_rx_unit|Dane_Reg[5]~feeder_combout $end
$var wire 1 .! uart_rx_unit|Dane_Reg[4]~feeder_combout $end
$var wire 1 /! uart_rx_unit|Dane_Reg[2]~feeder_combout $end
$var wire 1 0! uart_rx_unit|process_1~1_combout $end
$var wire 1 1! uart_rx_unit|process_1~0_combout $end
$var wire 1 2! uart_rx_unit|process_1~2_combout $end
$var wire 1 3! uart_rx_unit|Blad_Par~0_combout $end
$var wire 1 4! uart_rx_unit|RX_Dane_Gotowe~0_combout $end
$var wire 1 5! uart_rx_unit|Baud_Ctr [7] $end
$var wire 1 6! uart_rx_unit|Baud_Ctr [6] $end
$var wire 1 7! uart_rx_unit|Baud_Ctr [5] $end
$var wire 1 8! uart_rx_unit|Baud_Ctr [4] $end
$var wire 1 9! uart_rx_unit|Baud_Ctr [3] $end
$var wire 1 :! uart_rx_unit|Baud_Ctr [2] $end
$var wire 1 ;! uart_rx_unit|Baud_Ctr [1] $end
$var wire 1 <! uart_rx_unit|Baud_Ctr [0] $end
$var wire 1 =! uart_rx_unit|Dane_Reg [7] $end
$var wire 1 >! uart_rx_unit|Dane_Reg [6] $end
$var wire 1 ?! uart_rx_unit|Dane_Reg [5] $end
$var wire 1 @! uart_rx_unit|Dane_Reg [4] $end
$var wire 1 A! uart_rx_unit|Dane_Reg [3] $end
$var wire 1 B! uart_rx_unit|Dane_Reg [2] $end
$var wire 1 C! uart_rx_unit|Dane_Reg [1] $end
$var wire 1 D! uart_rx_unit|Dane_Reg [0] $end
$var wire 1 E! uart_rx_unit|Dane_Ctr [3] $end
$var wire 1 F! uart_rx_unit|Dane_Ctr [2] $end
$var wire 1 G! uart_rx_unit|Dane_Ctr [1] $end
$var wire 1 H! uart_rx_unit|Dane_Ctr [0] $end
$var wire 1 I! baud_gen_unit|r_reg [7] $end
$var wire 1 J! baud_gen_unit|r_reg [6] $end
$var wire 1 K! baud_gen_unit|r_reg [5] $end
$var wire 1 L! baud_gen_unit|r_reg [4] $end
$var wire 1 M! baud_gen_unit|r_reg [3] $end
$var wire 1 N! baud_gen_unit|r_reg [2] $end
$var wire 1 O! baud_gen_unit|r_reg [1] $end
$var wire 1 P! baud_gen_unit|r_reg [0] $end
$upscope $end
$upscope $end
$enddefinitions $end
#0
$dumpvars
0!
0"
1#
0$
0%
0-
0,
0+
0*
0)
0(
0'
0&
0.
0/
10
x1
12
13
14
05
z6
z7
08
09
0:
0;
0<
0=
0>
0?
0@
0A
0B
0C
0D
1E
0F
1G
0H
0I
1J
0K
0L
1M
0N
0O
0P
1Q
0R
0S
0T
1U
0V
0W
0X
1Y
0Z
0[
1\
0]
0^
0_
1`
0a
0b
1c
0d
0e
0f
1g
0h
0i
0j
1k
0l
0m
0n
1o
0p
0q
0r
1s
0t
1u
0v
0w
0x
0y
0z
0{
0|
1}
0~
1!!
0"!
0#!
0$!
0%!
0&!
0'!
0(!
0)!
0*!
0+!
0,!
0-!
0.!
0/!
00!
01!
02!
03!
04!
0<!
0;!
0:!
09!
08!
07!
06!
05!
0D!
0C!
0B!
0A!
0@!
0?!
0>!
0=!
0H!
0G!
0F!
0E!
0P!
0O!
0N!
0M!
0L!
0K!
0J!
0I!
$end
#500
1"
1B
1C
1~
1t
1P!
1x
1]
0\
0u
1H
0G
1_
1I
0`
#1000
0"
0B
0C
#1500
1"
1B
1C
1O!
0P!
0J
0H
0I
1G
1V
1J
1I
0V
1W
0W
#2000
0"
0B
0C
#2500
1"
1B
1C
1P!
1X
1H
0G
0_
0J
0I
1`
1V
#3000
0"
0B
0C
#3500
1"
1B
1C
1<!
0O!
0P!
1a
0X
1J
0H
0Y
1I
1G
1_
0V
1b
1W
0I
0`
0W
#4000
0"
0B
0C
#4500
1"
1B
1C
1P!
1H
0G
1I
#5000
0"
0B
0C
#5500
1"
1B
1C
1O!
0P!
0J
0H
0I
1G
1V
1J
1I
0V
1W
0W
#6000
0"
0B
0C
#6500
1"
1B
1C
1P!
1X
1H
0G
0_
0J
0I
1`
1V
#7000
0"
0B
0C
#7500
1"
1B
1C
1;!
0<!
0O!
0P!
0c
0a
0X
1J
0H
0b
1Y
1I
1G
1c
1_
0V
1d
1b
1W
0I
0`
0d
0W
#8000
0"
0B
0C
#8500
1"
1B
1C
1P!
1H
0G
1I
#9000
0"
0B
0C
#9500
1"
1B
1C
1O!
0P!
0J
0H
0I
1G
1V
1J
1I
0V
1W
0W
#10000
0"
0B
0C
#10500
1"
1B
1C
1P!
1X
1H
0G
0_
0J
0I
1`
1V
#11000
0"
0B
0C
#11500
1"
1B
1C
1<!
0O!
0P!
1a
0X
1J
0H
0Y
1I
1G
0c
1_
0V
0b
1W
0I
0`
1d
0W
#12000
0"
0B
0C
#12500
1"
1B
1C
1P!
1H
0G
1I
#13000
0"
0B
0C
#13500
1"
1B
1C
1O!
0P!
0J
0H
0I
1G
1V
1J
1I
0V
1W
0W
#14000
0"
0B
0C
#14500
1"
1B
1C
1P!
1X
1H
0G
0_
0J
0I
1`
1V
#15000
0"
0B
0C
#15500
1"
1B
1C
1:!
0;!
0<!
0O!
0P!
1e
1c
0a
0X
1J
0H
0d
1b
1Y
1I
1G
0e
1_
0V
1f
1d
0b
1W
0I
0`
0f
0W
#16000
0"
0B
0C
#16500
1"
1B
1C
1P!
1H
0G
1I
#17000
0"
0B
0C
#17500
1"
1B
1C
1O!
0P!
0J
0H
0I
1G
1V
1J
1I
0V
1W
0W
#18000
0"
0B
0C
#18500
1"
1B
1C
1P!
1X
1H
0G
0_
0J
0I
1`
1V
#19000
0"
0B
0C
#19500
1"
1B
1C
1<!
0O!
0P!
1a
0X
1J
0H
0Y
1I
1G
1_
0V
1b
1W
0I
0`
0W
#20000
1$
0"
0B
1D
0C
11!
12!
#20500
1"
1B
1C
1P!
1H
0G
1I
#21000
0"
0B
0C
#21500
1"
1B
1C
1O!
0P!
0J
0H
0I
1G
1V
1J
1I
0V
1W
0W
#22000
0"
0B
0C
#22500
1"
1B
1C
1P!
1X
1H
0G
0_
0J
0I
1`
1V
#23000
0"
0B
0C
#23500
1"
1B
1C
1;!
0<!
0O!
0P!
0c
0a
0X
1J
0H
0b
1Y
1I
1G
1e
1c
1_
0V
0d
1b
1W
0I
0e
0`
1f
1d
0W
0f
#24000
0"
0B
0C
#24500
1"
1B
1C
1P!
1H
0G
1I
#25000
0"
0B
0C
#25500
1"
1B
1C
1O!
0P!
0J
0H
0I
1G
1V
1J
1I
0V
1W
0W
#26000
0"
0B
0C
#26500
1"
1B
1C
1P!
1X
1H
0G
0_
0J
0I
1`
1V
#27000
0"
0B
0C
#27500
1"
1B
1C
1<!
0O!
0P!
1a
0X
1J
0H
0Y
1I
1G
0c
1_
0V
0b
1W
0I
1e
0`
0d
0W
1f
#28000
0"
0B
0C
#28500
1"
1B
1C
1P!
1H
0G
1I
#29000
0"
0B
0C
#29500
1"
1B
1C
1O!
0P!
0J
0H
0I
1G
1V
1J
1I
0V
1W
0W
#30000
0"
0B
0C
#30500
1"
1B
1C
1P!
1X
1H
0G
0_
0J
0I
1`
1V
#31000
0"
0B
0C
#31500
1"
1B
1C
19!
0:!
0;!
0<!
0O!
0P!
0g
0e
1c
0a
0X
1J
0H
0f
1d
1b
1Y
1I
1G
1g
1_
0V
1h
1f
0d
0b
1W
0I
0`
0h
0W
#32000
0"
0B
0C
#32500
1"
1B
1C
1P!
1H
0G
1I
#33000
0"
0B
0C
#33500
1"
1B
1C
1O!
0P!
0J
0H
0I
1G
1V
1J
1I
0V
1W
0W
#34000
0"
0B
0C
#34500
1"
1B
1C
1P!
1X
1H
0G
0_
0J
0I
1`
1V
#35000
0"
0B
0C
#35500
1"
1B
1C
1<!
0O!
0P!
1a
0X
1J
0H
0Y
1I
1G
1_
0V
1b
1W
0I
0`
0W
#36000
0"
0B
0C
#36500
1"
1B
1C
1P!
1H
0G
1I
#37000
0"
0B
0C
#37500
1"
1B
1C
1O!
0P!
0J
0H
0I
1G
1V
1J
1I
0V
1W
0W
#38000
0"
0B
0C
#38500
1"
1B
1C
1P!
1X
1H
0G
0_
0J
0I
1`
1V
#39000
0"
0B
0C
#39500
1"
1B
1C
1;!
0<!
0O!
0P!
0c
0a
0X
1J
0H
0b
1Y
1I
1G
1c
1_
0V
1d
1b
1W
0I
0`
0d
0W
#40000
0"
0B
0C
#40500
1"
1B
1C
1P!
1H
0G
1I
#41000
0"
0B
0C
#41500
1"
1B
1C
1O!
0P!
0J
0H
0I
1G
1V
1J
1I
0V
1W
0W
#42000
0"
0B
0C
#42500
1"
1B
1C
1P!
1X
1H
0G
0_
0J
0I
1`
1V
#43000
0"
0B
0C
#43500
1"
1B
1C
1<!
0O!
0P!
1a
0X
1J
0H
0Y
1I
1G
0c
1_
0V
0b
1W
0I
0`
1d
0W
#44000
0"
0B
0C
#44500
1"
1B
1C
1P!
1H
0G
1I
#45000
0"
0B
0C
#45500
1"
1B
1C
1O!
0P!
0J
0H
0I
1G
1V
1J
1I
0V
1W
0W
#46000
0"
0B
0C
#46500
1"
1B
1C
1P!
1X
1H
0G
0_
0J
0I
1`
1V
#47000
0"
0B
0C
#47500
1"
1B
1C
1:!
0;!
0<!
0O!
0P!
1e
1c
0a
0X
1J
0H
0d
1b
1Y
1I
1G
0g
0e
1_
0V
0f
1d
0b
1W
0I
1g
0`
1h
1f
0W
0h
#48000
0"
0B
0C
#48500
1"
1B
1C
1P!
1H
0G
1I
#49000
0"
0B
0C
#49500
1"
1B
1C
1O!
0P!
0J
0H
0I
1G
1V
1J
1I
0V
1W
0W
#50000
0"
0B
0C
#50500
1"
1B
1C
1P!
1X
1H
0G
0_
0J
0I
1`
1V
#51000
0"
0B
0C
#51500
1"
1B
1C
1<!
0O!
0P!
1a
0X
1J
0H
0Y
1I
1G
1_
0V
1b
1W
0I
0`
0W
#52000
0"
0B
0C
#52500
1"
1B
1C
1P!
1H
0G
1I
#53000
0"
0B
0C
#53500
1"
1B
1C
1O!
0P!
0J
0H
0I
1G
1V
1J
1I
0V
1W
0W
#54000
0"
0B
0C
#54500
1"
1B
1C
1P!
1X
1H
0G
0_
0J
0I
1`
1V
#55000
0"
0B
0C
#55500
1"
1B
1C
1;!
0<!
0O!
0P!
0c
0a
0X
1J
0H
0b
1Y
1I
1G
1e
1c
1_
0V
0d
1b
1W
0I
0g
0e
0`
0f
1d
0W
1g
1h
1f
0h
#56000
0"
0B
0C
#56500
1"
1B
1C
1P!
1H
0G
1I
#57000
0"
0B
0C
#57500
1"
1B
1C
1O!
0P!
0J
0H
0I
1G
1V
1J
1I
0V
1W
0W
#58000
0"
0B
0C
#58500
1"
1B
1C
1P!
1X
1H
0G
0_
0J
0I
1`
1V
#59000
0"
0B
0C
#59500
1"
1B
1C
1<!
0O!
0P!
1Z
1a
0X
1J
0H
0Y
1I
1G
1[
0c
1_
0V
0b
1W
0I
0`
1\
1e
0d
0W
0g
0f
1h
#60000
0$
0"
0B
0D
0C
01!
02!
#60500
1"
1B
1C
1P!
1H
0G
1I
#61000
0"
0B
0C
#61500
1"
1B
1C
1O!
0P!
0J
0H
0I
1G
1V
1J
1I
0V
1W
0W
#62000
0"
0B
0C
#62500
1"
1B
1C
1P!
1X
1H
0G
1p
0_
0J
0I
0!!
1y
1`
1V
1)!
0}
#63000
0"
0B
0C
#63500
1"
1B
1C
1*!
0~
09!
0:!
0;!
0<!
0O!
0P!
1+!
0x
1g
0Z
0e
1c
0a
0X
1J
0H
1"!
1f
1d
1b
1Y
1I
1G
0y
0p
0[
1_
0V
0h
0f
0d
0b
1W
0I
0+!
1!!
0`
0\
0W
0"!
#64000
0"
0B
0C
#64500
1"
1B
1C
1P!
1H
0G
1I
#65000
0"
0B
0C
#65500
1"
1B
1C
1O!
0P!
0J
0H
0I
1G
1V
1J
1I
0V
1W
0W
#66000
0"
0B
0C
#66500
1"
1B
1C
1P!
1X
1H
0G
0_
0J
0I
1`
1V
#67000
0"
0B
0C
#67500
1"
1B
1C
1<!
0O!
0P!
1a
0X
1J
0H
0Y
1I
1G
1_
0V
1b
1W
0I
0`
0W
#68000
0"
0B
0C
#68500
1"
1B
1C
1P!
1H
0G
1I
#69000
0"
0B
0C
#69500
1"
1B
1C
1O!
0P!
0J
0H
0I
1G
1V
1J
1I
0V
1W
0W
#70000
0"
0B
0C
#70500
1"
1B
1C
1P!
1X
1H
0G
0_
0J
0I
1`
1V
#71000
0"
0B
0C
#71500
1"
1B
1C
1;!
0<!
0O!
0P!
0c
0a
0X
1J
0H
0b
1Y
1I
1G
1c
1_
0V
1d
1b
1W
0I
0`
0d
0W
#72000
0"
0B
0C
#72500
1"
1B
1C
1P!
1H
0G
1I
#73000
0"
0B
0C
#73500
1"
1B
1C
1O!
0P!
0J
0H
0I
1G
1V
1J
1I
0V
1W
0W
#74000
0"
0B
0C
#74500
1"
1B
1C
1P!
1X
1H
0G
0_
0J
0I
1`
1V
#75000
0"
0B
0C
#75500
1"
1B
1C
1<!
0O!
0P!
1a
0X
1J
0H
0Y
1I
1G
0c
1_
0V
0b
1W
0I
0`
1d
0W
#76000
0"
0B
0C
#76500
1"
1B
1C
1P!
1H
0G
1I
#77000
0"
0B
0C
#77500
1"
1B
1C
1O!
0P!
0J
0H
0I
1G
1V
1J
1I
0V
1W
0W
#78000
0"
0B
0C
#78500
1"
1B
1C
1P!
1X
1H
0G
0_
0J
0I
1`
1V
#79000
0"
0B
0C
#79500
1"
1B
1C
1:!
0;!
0<!
0O!
0P!
1e
1c
0a
0X
1J
0H
0d
1b
1Y
1I
1G
0e
1_
0V
1f
1d
0b
1W
0I
0`
0f
0W
#80000
0"
0B
0C
#80500
1"
1B
1C
1P!
1H
0G
1I
#81000
0"
0B
0C
#81500
1"
1B
1C
1O!
0P!
0J
0H
0I
1G
1V
1J
1I
0V
1W
0W
#82000
0"
0B
0C
#82500
1"
1B
1C
1P!
1X
1H
0G
0_
0J
0I
1`
1V
#83000
0"
0B
0C
#83500
1"
1B
1C
1<!
0O!
0P!
1a
0X
1J
0H
0Y
1I
1G
1_
0V
1b
1W
0I
0`
0W
#84000
0"
0B
0C
#84500
1"
1B
1C
1P!
1H
0G
1I
#85000
0"
0B
0C
#85500
1"
1B
1C
1O!
0P!
0J
0H
0I
1G
1V
1J
1I
0V
1W
0W
#86000
0"
0B
0C
#86500
1"
1B
1C
1P!
1X
1H
0G
0_
0J
0I
1`
1V
#87000
0"
0B
0C
#87500
1"
1B
1C
1;!
0<!
0O!
0P!
0c
0a
0X
1J
0H
0b
1Y
1I
1G
1e
1c
1_
0V
0d
1b
1W
0I
0e
0`
1f
1d
0W
0f
#88000
0"
0B
0C
#88500
1"
1B
1C
1P!
1H
0G
1I
#89000
0"
0B
0C
#89500
1"
1B
1C
1O!
0P!
0J
0H
0I
1G
1V
1J
1I
0V
1W
0W
#90000
0"
0B
0C
#90500
1"
1B
1C
1P!
1X
1H
0G
0_
0J
0I
1`
1V
#91000
0"
0B
0C
#91500
1"
1B
1C
1<!
0O!
0P!
1a
0X
1J
0H
0Y
1I
1G
0c
1_
0V
0b
1W
0I
1e
0`
0d
0W
1f
#92000
0"
0B
0C
#92500
1"
1B
1C
1P!
1H
0G
1I
#93000
0"
0B
0C
#93500
1"
1B
1C
1O!
0P!
0J
0H
0I
1G
1V
1J
1I
0V
1W
0W
#94000
0"
0B
0C
#94500
1"
1B
1C
1P!
1X
1H
0G
0_
0J
0I
1`
1V
#95000
0"
0B
0C
#95500
1"
1B
1C
19!
0:!
0;!
0<!
0O!
0P!
0g
0e
1c
0a
0X
1J
0H
0f
1d
1b
1Y
1I
1G
1g
1_
0V
1h
1f
0d
0b
1W
0I
0`
0h
0W
#96000
0"
0B
0C
#96500
1"
1B
1C
1P!
1H
0G
1I
#97000
0"
0B
0C
#97500
1"
1B
1C
1O!
0P!
0J
0H
0I
1G
1V
1J
1I
0V
1W
0W
#98000
0"
0B
0C
#98500
1"
1B
1C
1P!
1X
1H
0G
0_
0J
0I
1`
1V
#99000
0"
0B
0C
#99500
1"
1B
1C
1<!
0O!
0P!
1a
0X
1J
0H
0Y
1I
1G
1_
0V
1b
1W
0I
0`
0W
#100000
0"
0B
0C
#100500
1"
1B
1C
1P!
1H
0G
1I
#101000
0"
0B
0C
#101500
1"
1B
1C
1O!
0P!
0J
0H
0I
1G
1V
1J
1I
0V
1W
0W
#102000
0"
0B
0C
#102500
1"
1B
1C
1P!
1X
1H
0G
0_
0J
0I
1`
1V
#103000
0"
0B
0C
#103500
1"
1B
1C
1;!
0<!
0O!
0P!
0c
0a
0X
1J
0H
0b
1Y
1I
1G
1c
1_
0V
1d
1b
1W
0I
0`
0d
0W
#104000
0"
0B
0C
#104500
1"
1B
1C
1P!
1H
0G
1I
#105000
0"
0B
0C
#105500
1"
1B
1C
1O!
0P!
0J
0H
0I
1G
1V
1J
1I
0V
1W
0W
#106000
0"
0B
0C
#106500
1"
1B
1C
1P!
1X
1H
0G
0_
0J
0I
1`
1V
#107000
0"
0B
0C
#107500
1"
1B
1C
1<!
0O!
0P!
1a
0X
1J
0H
0Y
1I
1G
0c
1_
0V
0b
1W
0I
0`
1d
0W
#108000
0"
0B
0C
#108500
1"
1B
1C
1P!
1H
0G
1I
#109000
0"
0B
0C
#109500
1"
1B
1C
1O!
0P!
0J
0H
0I
1G
1V
1J
1I
0V
1W
0W
#110000
0"
0B
0C
#110500
1"
1B
1C
1P!
1X
1H
0G
0_
0J
0I
1`
1V
#111000
0"
0B
0C
#111500
1"
1B
1C
1:!
0;!
0<!
0O!
0P!
1e
1c
0a
0X
1J
0H
0d
1b
1Y
1I
1G
0g
0e
1_
0V
0f
1d
0b
1W
0I
1g
0`
1h
1f
0W
0h
#112000
0"
0B
0C
#112500
1"
1B
1C
1P!
1H
0G
1I
#113000
0"
0B
0C
#113500
1"
1B
1C
1O!
0P!
0J
0H
0I
1G
1V
1J
1I
0V
1W
0W
#114000
0"
0B
0C
#114500
1"
1B
1C
1P!
1X
1H
0G
0_
0J
0I
1`
1V
#115000
0"
0B
0C
#115500
1"
1B
1C
1<!
0O!
0P!
1a
0X
1J
0H
0Y
1I
1G
1_
0V
1b
1W
0I
0`
0W
#116000
0"
0B
0C
#116500
1"
1B
1C
1P!
1H
0G
1I
#117000
0"
0B
0C
#117500
1"
1B
1C
1O!
0P!
0J
0H
0I
1G
1V
1J
1I
0V
1W
0W
#118000
0"
0B
0C
#118500
1"
1B
1C
1P!
1X
1H
0G
0_
0J
0I
1`
1V
#119000
0"
0B
0C
#119500
1"
1B
1C
1;!
0<!
0O!
0P!
0c
0a
0X
1J
0H
0b
1Y
1I
1G
1e
1c
1_
0V
0d
1b
1W
0I
0g
0e
0`
0f
1d
0W
1g
1h
1f
0h
#120000
1$
0"
0B
1D
0C
11!
12!
#120500
1"
1B
1C
1P!
1H
0G
1I
#121000
0"
0B
0C
#121500
1"
1B
1C
1O!
0P!
0J
0H
0I
1G
1V
1J
1I
0V
1W
0W
#122000
0"
0B
0C
#122500
1"
1B
1C
1P!
1X
1H
0G
0_
0J
0I
1`
1V
#123000
0"
0B
0C
#123500
1"
1B
1C
1<!
0O!
0P!
1Z
1a
0X
1J
0H
0Y
1I
1G
1[
0c
1_
0V
0b
1W
0I
0`
1\
1e
0d
0W
0g
0f
1h
#124000
0"
0B
0C
#124500
1"
1B
1C
1P!
1H
0G
1I
#125000
0"
0B
0C
#125500
1"
1B
1C
1O!
0P!
0J
0H
0I
1G
1V
1J
1I
0V
1W
0W
#126000
0"
0B
0C
#126500
1"
1B
1C
1P!
1X
1H
0G
1p
0_
0J
0I
1+!
0!!
1`
1V
1"!
#127000
0"
0B
0C
#127500
1"
1B
1C
1H!
09!
0:!
0;!
0<!
0O!
0P!
1=!
1?
1g
0Z
0e
1c
0a
0X
1J
0H
01!
1&
1#!
0"!
1f
1d
1b
1Y
1I
1G
1,!
0p
0[
1_
0V
02!
0h
0f
0d
0b
1W
0I
0+!
1!!
0`
0\
0W
0#!
1"!
#128000
0"
0B
0C
#128500
1"
1B
1C
1P!
1H
0G
1I
#129000
0"
0B
0C
#129500
1"
1B
1C
1O!
0P!
0J
0H
0I
1G
1V
1J
1I
0V
1W
0W
#130000
0"
0B
0C
#130500
1"
1B
1C
1P!
1X
1H
0G
0_
0J
0I
1`
1V
#131000
0"
0B
0C
#131500
1"
1B
1C
1<!
0O!
0P!
1a
0X
1J
0H
0Y
1I
1G
1_
0V
1b
1W
0I
0`
0W
#132000
0"
0B
0C
#132500
1"
1B
1C
1P!
1H
0G
1I
#133000
0"
0B
0C
#133500
1"
1B
1C
1O!
0P!
0J
0H
0I
1G
1V
1J
1I
0V
1W
0W
#134000
0"
0B
0C
#134500
1"
1B
1C
1P!
1X
1H
0G
0_
0J
0I
1`
1V
#135000
0"
0B
0C
#135500
1"
1B
1C
1;!
0<!
0O!
0P!
0c
0a
0X
1J
0H
0b
1Y
1I
1G
1c
1_
0V
1d
1b
1W
0I
0`
0d
0W
#136000
0"
0B
0C
#136500
1"
1B
1C
1P!
1H
0G
1I
#137000
0"
0B
0C
#137500
1"
1B
1C
1O!
0P!
0J
0H
0I
1G
1V
1J
1I
0V
1W
0W
#138000
0"
0B
0C
#138500
1"
1B
1C
1P!
1X
1H
0G
0_
0J
0I
1`
1V
#139000
0"
0B
0C
#139500
1"
1B
1C
1<!
0O!
0P!
1a
0X
1J
0H
0Y
1I
1G
0c
1_
0V
0b
1W
0I
0`
1d
0W
#140000
0$
0"
0B
0D
0C
11!
12!
#140500
1"
1B
1C
1P!
1H
0G
1I
#141000
0"
0B
0C
#141500
1"
1B
1C
1O!
0P!
0J
0H
0I
1G
1V
1J
1I
0V
1W
0W
#142000
0"
0B
0C
#142500
1"
1B
1C
1P!
1X
1H
0G
0_
0J
0I
1`
1V
#143000
0"
0B
0C
#143500
1"
1B
1C
1:!
0;!
0<!
0O!
0P!
1e
1c
0a
0X
1J
0H
0d
1b
1Y
1I
1G
0e
1_
0V
1f
1d
0b
1W
0I
0`
0f
0W
#144000
0"
0B
0C
#144500
1"
1B
1C
1P!
1H
0G
1I
#145000
0"
0B
0C
#145500
1"
1B
1C
1O!
0P!
0J
0H
0I
1G
1V
1J
1I
0V
1W
0W
#146000
0"
0B
0C
#146500
1"
1B
1C
1P!
1X
1H
0G
0_
0J
0I
1`
1V
#147000
0"
0B
0C
#147500
1"
1B
1C
1<!
0O!
0P!
1a
0X
1J
0H
0Y
1I
1G
1_
0V
1b
1W
0I
0`
0W
#148000
0"
0B
0C
#148500
1"
1B
1C
1P!
1H
0G
1I
#149000
0"
0B
0C
#149500
1"
1B
1C
1O!
0P!
0J
0H
0I
1G
1V
1J
1I
0V
1W
0W
#150000
0"
0B
0C
#150500
1"
1B
1C
1P!
1X
1H
0G
0_
0J
0I
1`
1V
#151000
0"
0B
0C
#151500
1"
1B
1C
1;!
0<!
0O!
0P!
0c
0a
0X
1J
0H
0b
1Y
1I
1G
1e
1c
1_
0V
0d
1b
1W
0I
0e
0`
1f
1d
0W
0f
#152000
0"
0B
0C
#152500
1"
1B
1C
1P!
1H
0G
1I
#153000
0"
0B
0C
#153500
1"
1B
1C
1O!
0P!
0J
0H
0I
1G
1V
1J
1I
0V
1W
0W
#154000
0"
0B
0C
#154500
1"
1B
1C
1P!
1X
1H
0G
0_
0J
0I
1`
1V
#155000
0"
0B
0C
